{"uuid":"b3d42872-d718-4a0a-83b9-955e120f2905","historyId":"4a04c74cb316b1bc3b1cbee09faa6eca","fullName":"restAssuredTests.reqres.ReqResTests.get users by page schema validation","labels":[{"name":"package","value":"restAssuredTests.reqres.ReqResTests"},{"name":"testClass","value":"restAssuredTests.reqres.ReqResTests"},{"name":"testMethod","value":"get users by page schema validation"},{"name":"parentSuite","value":"selenide tests"},{"name":"suite","value":"Rest tests"},{"name":"subSuite","value":"restAssuredTests.reqres.ReqResTests"},{"name":"host","value":"BZRK"},{"name":"thread","value":"11612@BZRK.TestNG-test-Rest tests-2(27)"},{"name":"framework","value":"testng"},{"name":"language","value":"java"}],"links":[],"name":"get users by page schema validation","status":"broken","statusDetails":{"known":false,"muted":false,"flaky":false,"message":"No signature of method: groovy.json.JsonSlurper.parse() is applicable for argument types: (String) values: [{\"page\":1,\"per_page\":6,\"total\":12,\"total_pages\":2,\"data\":[{\"id\":1,\"email\":\"george.bluth@reqres.in\",\"first_name\":\"George\",\"last_name\":\"Bluth\",\"avatar\":\"https://reqres.in/img/faces/1-image.jpg\"},{\"id\":2,\"email\":\"janet.weaver@reqres.in\",\"first_name\":\"Janet\",\"last_name\":\"Weaver\",\"avatar\":\"https://reqres.in/img/faces/2-image.jpg\"},{\"id\":3,\"email\":\"emma.wong@reqres.in\",\"first_name\":\"Emma\",\"last_name\":\"Wong\",\"avatar\":\"https://reqres.in/img/faces/3-image.jpg\"},{\"id\":4,\"email\":\"eve.holt@reqres.in\",\"first_name\":\"Eve\",\"last_name\":\"Holt\",\"avatar\":\"https://reqres.in/img/faces/4-image.jpg\"},{\"id\":5,\"email\":\"charles.morris@reqres.in\",\"first_name\":\"Charles\",\"last_name\":\"Morris\",\"avatar\":\"https://reqres.in/img/faces/5-image.jpg\"},{\"id\":6,\"email\":\"tracey.ramos@reqres.in\",\"first_name\":\"Tracey\",\"last_name\":\"Ramos\",\"avatar\":\"https://reqres.in/img/faces/6-image.jpg\"}],\"support\":{\"url\":\"https://reqres.in/#support-heading\",\"text\":\"To keep ReqRes free, contributions towards server costs are appreciated!\"}}]\nPossible solutions: parse([B), parse([C), parse(java.io.File), parse(java.io.InputStream), parse(java.io.Reader), parse(java.net.URL)","trace":"groovy.lang.MissingMethodException: No signature of method: groovy.json.JsonSlurper.parse() is applicable for argument types: (String) values: [{\"page\":1,\"per_page\":6,\"total\":12,\"total_pages\":2,\"data\":[{\"id\":1,\"email\":\"george.bluth@reqres.in\",\"first_name\":\"George\",\"last_name\":\"Bluth\",\"avatar\":\"https://reqres.in/img/faces/1-image.jpg\"},{\"id\":2,\"email\":\"janet.weaver@reqres.in\",\"first_name\":\"Janet\",\"last_name\":\"Weaver\",\"avatar\":\"https://reqres.in/img/faces/2-image.jpg\"},{\"id\":3,\"email\":\"emma.wong@reqres.in\",\"first_name\":\"Emma\",\"last_name\":\"Wong\",\"avatar\":\"https://reqres.in/img/faces/3-image.jpg\"},{\"id\":4,\"email\":\"eve.holt@reqres.in\",\"first_name\":\"Eve\",\"last_name\":\"Holt\",\"avatar\":\"https://reqres.in/img/faces/4-image.jpg\"},{\"id\":5,\"email\":\"charles.morris@reqres.in\",\"first_name\":\"Charles\",\"last_name\":\"Morris\",\"avatar\":\"https://reqres.in/img/faces/5-image.jpg\"},{\"id\":6,\"email\":\"tracey.ramos@reqres.in\",\"first_name\":\"Tracey\",\"last_name\":\"Ramos\",\"avatar\":\"https://reqres.in/img/faces/6-image.jpg\"}],\"support\":{\"url\":\"https://reqres.in/#support-heading\",\"text\":\"To keep ReqRes free, contributions towards server costs are appreciated!\"}}]\nPossible solutions: parse([B), parse([C), parse(java.io.File), parse(java.io.InputStream), parse(java.io.Reader), parse(java.net.URL)\r\n\tat org.codehaus.groovy.runtime.ScriptBytecodeAdapter.unwrap(ScriptBytecodeAdapter.java:72)\r\n\tat org.codehaus.groovy.vmplugin.v8.IndyGuardsFiltersAndSignatures.unwrap(IndyGuardsFiltersAndSignatures.java:163)\r\n\tat org.codehaus.groovy.vmplugin.v8.IndyInterface.fromCache(IndyInterface.java:321)\r\n\tat response_parser.RaResponse.parseResponseToJsonObject(RaResponse.groovy:30)\r\n\tat org.codehaus.groovy.vmplugin.v8.IndyInterface.fromCache(IndyInterface.java:321)\r\n\tat response_parser.RaResponse.<init>(RaResponse.groovy:21)\r\n\tat org.codehaus.groovy.vmplugin.v8.IndyInterface.fromCache(IndyInterface.java:321)\r\n\tat services.reqres.reqresusers.UsersHelper.getListUsers(UsersHelper.groovy:23)\r\n\tat org.codehaus.groovy.vmplugin.v8.IndyInterface.fromCache(IndyInterface.java:321)\r\n\tat restAssuredTests.reqres.ReqResTests.get users by page schema validation(ReqResTests.groovy:52)\r\n\tat java.base/jdk.internal.reflect.NativeMethodAccessorImpl.invoke0(Native Method)\r\n\tat java.base/jdk.internal.reflect.NativeMethodAccessorImpl.invoke(NativeMethodAccessorImpl.java:77)\r\n\tat java.base/jdk.internal.reflect.DelegatingMethodAccessorImpl.invoke(DelegatingMethodAccessorImpl.java:43)\r\n\tat java.base/java.lang.reflect.Method.invoke(Method.java:568)\r\n\tat org.testng.internal.invokers.MethodInvocationHelper.invokeMethod(MethodInvocationHelper.java:141)\r\n\tat org.testng.internal.invokers.TestInvoker.invokeMethod(TestInvoker.java:686)\r\n\tat org.testng.internal.invokers.TestInvoker.invokeTestMethod(TestInvoker.java:230)\r\n\tat org.testng.internal.invokers.MethodRunner.runInSequence(MethodRunner.java:63)\r\n\tat org.testng.internal.invokers.TestInvoker$MethodInvocationAgent.invoke(TestInvoker.java:992)\r\n\tat org.testng.internal.invokers.TestInvoker.invokeTestMethods(TestInvoker.java:203)\r\n\tat org.testng.internal.invokers.TestMethodWorker.invokeTestMethods(TestMethodWorker.java:154)\r\n\tat org.testng.internal.invokers.TestMethodWorker.run(TestMethodWorker.java:134)\r\n\tat java.base/java.util.concurrent.Executors$RunnableAdapter.call(Executors.java:539)\r\n\tat java.base/java.util.concurrent.FutureTask.run(FutureTask.java:264)\r\n\tat org.testng.internal.thread.graph.TestNGFutureTask.run(TestNGFutureTask.java:22)\r\n\tat java.base/java.util.concurrent.ThreadPoolExecutor.runWorker(ThreadPoolExecutor.java:1136)\r\n\tat java.base/java.util.concurrent.ThreadPoolExecutor$Worker.run(ThreadPoolExecutor.java:635)\r\n\tat java.base/java.lang.Thread.run(Thread.java:842)\r\n"},"stage":"finished","steps":[],"attachments":[{"name":"Request","source":"1db1c6e1-b7dd-4f3b-8e11-d1219fc6a43c-attachment.html","type":"text/html"},{"name":"Request","source":"1c20cf1a-02fa-4219-883d-077db74ab391-attachment.html","type":"text/html"},{"name":"Request","source":"dc1d7cd2-28d2-4404-8a91-c749b7d5e4c7-attachment.html","type":"text/html"},{"name":"Request","source":"428bb830-0d94-4f21-ba3f-ddc84f11668c-attachment.html","type":"text/html"},{"name":"HTTP/1.1 200 OK","source":"861ea191-5561-4951-8ec0-0b0679340aa4-attachment.html","type":"text/html"},{"name":"HTTP/1.1 200 OK","source":"6f06e0a8-779e-4d10-864a-dc6cdd0a4405-attachment.html","type":"text/html"},{"name":"HTTP/1.1 200 OK","source":"23185605-21fa-44ad-90ce-4009de5e3508-attachment.html","type":"text/html"},{"name":"HTTP/1.1 200 OK","source":"f14f1877-eae0-480e-95fe-6f01780be266-attachment.html","type":"text/html"}],"parameters":[],"start":1718377493029,"stop":1718377493630}