{"uuid":"dcd761e7-3120-4a5f-b9b4-c19a989752c4","historyId":"ac2525335bcd983a479a2794d166496c","fullName":"restAssuredTests.reqres.ReqResTests.get users by page","labels":[{"name":"package","value":"restAssuredTests.reqres.ReqResTests"},{"name":"testClass","value":"restAssuredTests.reqres.ReqResTests"},{"name":"testMethod","value":"get users by page"},{"name":"parentSuite","value":"selenide tests"},{"name":"suite","value":"Rest tests"},{"name":"subSuite","value":"restAssuredTests.reqres.ReqResTests"},{"name":"host","value":"BZRK"},{"name":"thread","value":"11612@BZRK.TestNG-test-Rest tests-1(26)"},{"name":"framework","value":"testng"},{"name":"language","value":"java"}],"links":[],"name":"get users by page","status":"broken","statusDetails":{"known":false,"muted":false,"flaky":false,"message":"No signature of method: groovy.json.JsonSlurper.parse() is applicable for argument types: (String) values: [{\"page\":1,\"per_page\":6,\"total\":12,\"total_pages\":2,\"data\":[{\"id\":1,\"email\":\"george.bluth@reqres.in\",\"first_name\":\"George\",\"last_name\":\"Bluth\",\"avatar\":\"https://reqres.in/img/faces/1-image.jpg\"},{\"id\":2,\"email\":\"janet.weaver@reqres.in\",\"first_name\":\"Janet\",\"last_name\":\"Weaver\",\"avatar\":\"https://reqres.in/img/faces/2-image.jpg\"},{\"id\":3,\"email\":\"emma.wong@reqres.in\",\"first_name\":\"Emma\",\"last_name\":\"Wong\",\"avatar\":\"https://reqres.in/img/faces/3-image.jpg\"},{\"id\":4,\"email\":\"eve.holt@reqres.in\",\"first_name\":\"Eve\",\"last_name\":\"Holt\",\"avatar\":\"https://reqres.in/img/faces/4-image.jpg\"},{\"id\":5,\"email\":\"charles.morris@reqres.in\",\"first_name\":\"Charles\",\"last_name\":\"Morris\",\"avatar\":\"https://reqres.in/img/faces/5-image.jpg\"},{\"id\":6,\"email\":\"tracey.ramos@reqres.in\",\"first_name\":\"Tracey\",\"last_name\":\"Ramos\",\"avatar\":\"https://reqres.in/img/faces/6-image.jpg\"}],\"support\":{\"url\":\"https://reqres.in/#support-heading\",\"text\":\"To keep ReqRes free, contributions towards server costs are appreciated!\"}}]\nPossible solutions: parse([B), parse([C), parse(java.io.File), parse(java.io.InputStream), parse(java.io.Reader), parse(java.net.URL)","trace":"groovy.lang.MissingMethodException: No signature of method: groovy.json.JsonSlurper.parse() is applicable for argument types: (String) values: [{\"page\":1,\"per_page\":6,\"total\":12,\"total_pages\":2,\"data\":[{\"id\":1,\"email\":\"george.bluth@reqres.in\",\"first_name\":\"George\",\"last_name\":\"Bluth\",\"avatar\":\"https://reqres.in/img/faces/1-image.jpg\"},{\"id\":2,\"email\":\"janet.weaver@reqres.in\",\"first_name\":\"Janet\",\"last_name\":\"Weaver\",\"avatar\":\"https://reqres.in/img/faces/2-image.jpg\"},{\"id\":3,\"email\":\"emma.wong@reqres.in\",\"first_name\":\"Emma\",\"last_name\":\"Wong\",\"avatar\":\"https://reqres.in/img/faces/3-image.jpg\"},{\"id\":4,\"email\":\"eve.holt@reqres.in\",\"first_name\":\"Eve\",\"last_name\":\"Holt\",\"avatar\":\"https://reqres.in/img/faces/4-image.jpg\"},{\"id\":5,\"email\":\"charles.morris@reqres.in\",\"first_name\":\"Charles\",\"last_name\":\"Morris\",\"avatar\":\"https://reqres.in/img/faces/5-image.jpg\"},{\"id\":6,\"email\":\"tracey.ramos@reqres.in\",\"first_name\":\"Tracey\",\"last_name\":\"Ramos\",\"avatar\":\"https://reqres.in/img/faces/6-image.jpg\"}],\"support\":{\"url\":\"https://reqres.in/#support-heading\",\"text\":\"To keep ReqRes free, contributions towards server costs are appreciated!\"}}]\nPossible solutions: parse([B), parse([C), parse(java.io.File), parse(java.io.InputStream), parse(java.io.Reader), parse(java.net.URL)\r\n\tat org.codehaus.groovy.runtime.ScriptBytecodeAdapter.unwrap(ScriptBytecodeAdapter.java:72)\r\n\tat org.codehaus.groovy.vmplugin.v8.IndyGuardsFiltersAndSignatures.unwrap(IndyGuardsFiltersAndSignatures.java:163)\r\n\tat org.codehaus.groovy.vmplugin.v8.IndyInterface.fromCache(IndyInterface.java:321)\r\n\tat response_parser.RaResponse.parseResponseToJsonObject(RaResponse.groovy:30)\r\n\tat org.codehaus.groovy.vmplugin.v8.IndyInterface.fromCache(IndyInterface.java:321)\r\n\tat response_parser.RaResponse.<init>(RaResponse.groovy:21)\r\n\tat org.codehaus.groovy.vmplugin.v8.IndyInterface.fromCache(IndyInterface.java:321)\r\n\tat services.reqres.reqresusers.UsersHelper.getListUsers(UsersHelper.groovy:23)\r\n\tat org.codehaus.groovy.vmplugin.v8.IndyInterface.fromCache(IndyInterface.java:321)\r\n\tat restAssuredTests.reqres.ReqResTests.get users by page(ReqResTests.groovy:21)\r\n\tat java.base/jdk.internal.reflect.NativeMethodAccessorImpl.invoke0(Native Method)\r\n\tat java.base/jdk.internal.reflect.NativeMethodAccessorImpl.invoke(NativeMethodAccessorImpl.java:77)\r\n\tat java.base/jdk.internal.reflect.DelegatingMethodAccessorImpl.invoke(DelegatingMethodAccessorImpl.java:43)\r\n\tat java.base/java.lang.reflect.Method.invoke(Method.java:568)\r\n\tat org.testng.internal.invokers.MethodInvocationHelper.invokeMethod(MethodInvocationHelper.java:141)\r\n\tat org.testng.internal.invokers.TestInvoker.invokeMethod(TestInvoker.java:686)\r\n\tat org.testng.internal.invokers.TestInvoker.invokeTestMethod(TestInvoker.java:230)\r\n\tat org.testng.internal.invokers.MethodRunner.runInSequence(MethodRunner.java:63)\r\n\tat org.testng.internal.invokers.TestInvoker$MethodInvocationAgent.invoke(TestInvoker.java:992)\r\n\tat org.testng.internal.invokers.TestInvoker.invokeTestMethods(TestInvoker.java:203)\r\n\tat org.testng.internal.invokers.TestMethodWorker.invokeTestMethods(TestMethodWorker.java:154)\r\n\tat org.testng.internal.invokers.TestMethodWorker.run(TestMethodWorker.java:134)\r\n\tat java.base/java.util.concurrent.Executors$RunnableAdapter.call(Executors.java:539)\r\n\tat java.base/java.util.concurrent.FutureTask.run(FutureTask.java:264)\r\n\tat org.testng.internal.thread.graph.TestNGFutureTask.run(TestNGFutureTask.java:22)\r\n\tat java.base/java.util.concurrent.ThreadPoolExecutor.runWorker(ThreadPoolExecutor.java:1136)\r\n\tat java.base/java.util.concurrent.ThreadPoolExecutor$Worker.run(ThreadPoolExecutor.java:635)\r\n\tat java.base/java.lang.Thread.run(Thread.java:842)\r\n"},"stage":"finished","steps":[],"attachments":[{"name":"Request","source":"c58ed33f-4894-40c7-9e5c-65355389699f-attachment.html","type":"text/html"},{"name":"Request","source":"f3594ca6-d96b-4912-8bcc-8a1b195c808f-attachment.html","type":"text/html"},{"name":"Request","source":"91850c9c-b9ca-4783-9a2c-e57aa4cc13fa-attachment.html","type":"text/html"},{"name":"Request","source":"2b732959-2916-4b62-9e21-feb49f43b90f-attachment.html","type":"text/html"},{"name":"HTTP/1.1 200 OK","source":"2ad42476-cac5-4874-ab1c-2c5832687b9f-attachment.html","type":"text/html"},{"name":"HTTP/1.1 200 OK","source":"88f82bd4-0646-404c-9ea6-bcb636c273c0-attachment.html","type":"text/html"},{"name":"HTTP/1.1 200 OK","source":"db12cc24-7560-4c02-a86a-fff6dfae92c1-attachment.html","type":"text/html"},{"name":"HTTP/1.1 200 OK","source":"0f89bff1-94fe-4407-b013-f3c36e169cf6-attachment.html","type":"text/html"}],"parameters":[{"name":"arg1","value":"1..6"},{"name":"arg0","value":"1"}],"start":1718377493030,"stop":1718377493630}